[gd_scene load_steps=2 format=2]

[ext_resource path="res://backgrounds/DirtAutoTile3x3.png" type="Texture" id=1]

[node name="DirtAutoTile" type="Node" index="0"]

[node name="DirtAutoTile3x3" type="Sprite" parent="." index="0"]

texture = ExtResource( 1 )
centered = false
_sections_unfolded = [ "Transform" ]


