[gd_scene load_steps=2 format=2]

[ext_resource path="res://backgrounds/Sky.png" type="Texture" id=1]

[node name="ParallaxSky" type="ParallaxBackground" index="0"]

layer = -1
offset = Vector2( 0, 0 )
rotation = 0.0
scale = Vector2( 1, 1 )
transform = Transform2D( 1, 0, 0, 1, 0, 0 )
scroll_offset = Vector2( 0, 0 )
scroll_base_offset = Vector2( 0, 0 )
scroll_base_scale = Vector2( 1, 1 )
scroll_limit_begin = Vector2( 0, 0 )
scroll_limit_end = Vector2( 0, 0 )
scroll_ignore_camera_zoom = true

[node name="ParallaxLayer" type="ParallaxLayer" parent="." index="0"]

motion_scale = Vector2( 0.5, 0.5 )
motion_offset = Vector2( 0, 0 )
motion_mirroring = Vector2( 640, 640 )
_sections_unfolded = [ "Material", "Motion", "Pause", "Transform", "Visibility" ]

[node name="Sky" type="Sprite" parent="ParallaxLayer" index="0"]

texture = ExtResource( 1 )
centered = false
_sections_unfolded = [ "Offset" ]


